…
---

## This can get old...

```
small_flights <- select(flights, carrier, origin, dest, month, day, arr_delay, dep_delay)
small_jfk <- filter(small_flights, origin == "JFK")
small_jfk <- mutate(small_jfk, gain = arr_delay - dep_delay)
arrange(small_jfk, desc(gain))

# A tibble: 111,279 × 8
   carrier origin  dest month   day arr_delay dep_delay  gain
     <chr>  <chr> <chr> <int> <int>     <dbl>     <dbl> <dbl>
1       VX    JFK   LAX    11     1       194        -2   196
2       DL    JFK   SFO     7    10       177        16   161
3       MQ    JFK   CMH     7    22       191        41   150
4       B6    JFK   CLT     2    16       214        68   146
5       DL    JFK   SFO     7    10       169        23   146
6       B6    JFK   BUR     7    28       161        15   146
7       B6    JFK   BUF     6    30       142        -2   144
8       UA    JFK   SFO     3    18       140        -3   143
9       DL    JFK   AUS     6    24       138        -3   141
10      B6    JFK   IAD     7     7       132        -9   141
# ... with 111,269 more rows
```
…
## `group_by() + summarize()`

```
flights %>%
  group_by(year, month, day) %>%
  summarize(
    arr = mean(arr_delay, na.rm = TRUE),
    dep = mean(dep_delay, na.rm = TRUE)
  )
```

---

```
Source: local data frame [365 x 5]
Groups: year, month [?]

    year month   day        arr       dep
   <int> <int> <int>      <dbl>     <dbl>
1   2013     1     1 12.6510229 11.548926
2   2013     1     2 12.6928879 13.858824
3   2013     1     3  5.7333333 10.987832
4   2013     1     4 -1.9328194  8.951595
5   2013     1     5 -1.5258020  5.732218
6   2013     1     6  4.2364294  7.148014
7   2013     1     7 -4.9473118  5.417204
8   2013     1     8 -3.2275785  2.553073
9   2013     1     9 -0.2642777  2.276477
10  2013     1    10 -5.8988159  2.844995
# ... with 355 more rows
```
…
